{
  "data": [
    {
      "id": "240466",
      "type": "users",
      "attributes": {
        "token": "CiXfOSBN",
        "gender": "female",
        "name": "Анна Н",
        "account_type": "sitter",
        "bot": false,
        "favorite": false,
        "chat_uid": "240466",
        "phone": null,
        "time_zone": "Europe/Moscow",
        "timezone": "Europe/Moscow",
        "utc_offset": 10800,
        "age": 20,
        "requests_count": 0,
        "return_rate": 0,
        "hours_with_kids": 0,
        "approved": true,
        "banned": false,
        "absent": false,
        "work_today": false,
        "absent_from": null,
        "registered_at": "2025-05-07T21:19:17.841+03:00",
        "approved_at": "2025-05-15T17:21:29.119+03:00",
        "work_online": true,
        "work_offline": true,
        "kidsout_score": 0,
        "kidsout_school": true,
        "special_needs": true,
        "babies": false,
        "free_meeting": false,
        "max_children": 1,
        "animals": "Готова приходить в семьи, где есть различные животные: не имею аллергий и страхов.",
        "passport_confirmed": true,
        "security_clearance": true,
        "first_aid_course": false,
        "card_payment_possible": true,
        "who_can_invite": "except_ignored",
        "motivation": "🤱🏻Я работаю в Kidsout, потому что люблю проводить время с детьми, организовывать их досуг. Мне нравится придумывать игры, активности, участвовать в развитии и росте ребенка. \n\n✍️Люблю отвечать на различные вопросы детей по устройству мира, которые связаны с физикой: почему небо голубое? почему земля крутится? почему сменяются времена года?\n\n🤲🏻Умею прививать любовь к порядку и учебе. Умею терпеливо объяснять простым языком. \n\n🫶🏻Я очень спокойный и мягкий человек, умею находить общий язык. Я очень стабильный человек, который всегда сохраняет трезвый ум.\n\n🧠Буду рада сделать уроки с Вашим ребенком, объяснить школьную программу по какому-либо предмету. Пройти новые темы и подготовиться к проверочной.\n\n🤰🏻Я всегда четко следую инструкциям и пожеланиям родителей. Мне всегда важно, чтобы с моим приходом обыденная жизнь ребенка никак не менялась. Я ценю доверие от родителей, безопасность – приоритет #1 для меня.",
        "additional_info": "Ближайшая станция метро – «Раменки»\n\nУ меня есть действующая медицинская книжка.\n\nЕсли заказ заканчивается позже 22:00, прошу вызвать мне такси.\n\nОпоздания родителя:\n0-15 минут: бесплатно\n15-30 минут: полставки\nот 30 минут: полная ставка.",
        "late_booking_transport_details": "Если заказ заканчивается позже 22:00, прошу вызвать мне такси в район «Раменки»",
        "late_arrival_policy": "0-15 минут: бесплатно \n15-30 минут: полставки\nот 30 минут: полная ставка",
        "region_id": 1,
        "about": "Образование 📖 \nМГУ им. Ломоносова (фундаментальная и прикладная физика).\n\nОпыт работы с детьми 👶🏻\n С 2024 г. работаю репетитором по физике и математике для детей разных возрастов.\nС 2024 г. прохожу практику и работаю в детском онкоцентре им. Рогачева.\n\n🤱🏻Я работаю в Kidsout, потому что люблю проводить время с детьми, организовывать их досуг. Мне нравится придумывать игры, активности, участвовать в развитии и росте ребенка. \n\n✍️Люблю отвечать на различные вопросы детей по устройству мира, которые связаны с физикой: почему небо голубое? почему земля крутится? почему сменяются времена года?\n\n🤲🏻Умею прививать любовь к порядку и учебе. Умею терпеливо объяснять простым языком. \n\n🫶🏻Я очень спокойный и мягкий человек, умею находить общий язык. Я очень стабильный человек, который всегда сохраняет трезвый ум.\n\n🧠Буду рада сделать уроки с Вашим ребенком, объяснить школьную программу по какому-либо предмету. Пройти новые темы и подготовиться к проверочной.\n\n🤰🏻Я всегда четко следую инструкциям и пожеланиям родителей. Мне всегда важно, чтобы с моим приходом обыденная жизнь ребенка никак не менялась. Я ценю доверие от родителей, безопасность – приоритет #1 для меня.\n\nЕсли заказ заканчивается позже 22:00, прошу вызвать мне такси в район «Раменки»\n\n0-15 минут: бесплатно \n15-30 минут: полставки\nот 30 минут: полная ставка\n\nБлижайшая станция метро – «Раменки»\n\nУ меня есть действующая медицинская книжка.\n\nЕсли заказ заканчивается позже 22:00, прошу вызвать мне такси.\n\nОпоздания родителя:\n0-15 минут: бесплатно\n15-30 минут: полставки\nот 30 минут: полная ставка.",
        "education_and_experience": "Образование 📖 \nМГУ им. Ломоносова (фундаментальная и прикладная физика).\n\nОпыт работы с детьми 👶🏻\n С 2024 г. работаю репетитором по физике и математике для детей разных возрастов.\nС 2024 г. прохожу практику и работаю в детском онкоцентре им. Рогачева.",
        "city_id": 1,
        "rate": 500,
        "rate_for_2_kids": 350,
        "rate_for_3_kids": 450,
        "rate_for_4_kids": 550,
        "rate_for_5_kids": 650,
        "rate_online": 500,
        "rate_currency": "RUB",
        "minimum_request_amount": 1000,
        "phone_confirmed": true,
        "distance": null,
        "access_token": null,
        "video": null,
        "response_time": null,
        "negative_reviews_count": 0,
        "positive_reviews_count": 0,
        "indexable": false
      },
      "relationships": {
        "avatars": {
          "data": [
            {
              "type": "avatars",
              "id": "169619"
            }
          ]
        },
        "inaccurate_location": {
          "data": {
            "type": "inaccurate_locations",
            "id": "1953422"
          }
        },
        "meta_tags": {
          "data": {
            "type": "meta_tags",
            "id": "368869"
          }
        }
      }
    }
  ],
  "included": [
    {
      "id": "169619",
      "type": "avatars",
      "attributes": {
        "image": {
          "url": "https://6251637c-5354-4233-be34-525ab9e62e82.selcdn.net/uploads/avatar/000/169/619/image/cf5b1a234b.jpg",
          "thumb": "https://6251637c-5354-4233-be34-525ab9e62e82.selcdn.net/uploads/avatar/000/169/619/image/thumb_cf5b1a234b.jpg",
          "medium": "https://6251637c-5354-4233-be34-525ab9e62e82.selcdn.net/uploads/avatar/000/169/619/image/medium_cf5b1a234b.jpg"
        }
      }
    },
    {
      "id": "1953422",
      "type": "inaccurate_locations",
      "attributes": {
        "country_name": "Россия",
        "city_name": "Москва",
        "rough_latitude": 55.695,
        "rough_longitude": 37.515,
        "street": "Ломоносовский проспект",
        "metros": [
          {
            "city": "Москва",
            "name": "метро Раменки",
            "route": "Калининско-Солнцевская линия",
            "latitude": 55.697691,
            "longitude": 37.498725,
            "route_color": "FFD803"
          }
        ]
      }
    },
    {
      "id": "368869",
      "type": "meta_tags",
      "attributes": {
        "hurl_suffix": "proverennaya-nyanya-na-chas-s-ped-obrazovaniem",
        "keywords": "няня на час Анна Н Kidsout",
        "description": "Проверенная няня на час с педагогическим образованием Анна Н по цене от 500.00 ₽ за час. В Kidsout можно пригласить надежного бебиситтера или няню с реальными отзывами",
        "title": "Проверенная няня на час с педагогическим образованием Анна Н по цене от 500.00 ₽ за час"
      }
    }
  ],
  "meta": {
    "total": 2476,
    "total_pages": 2476,
    "current_page": 1
  }
}